{
  "configVersion": 2,
  "packages": [
    {
      "name": "_fe_analyzer_shared",
      "rootUri": "file:///Users/mihail/.pub-cache/hosted/pub.dev/_fe_analyzer_shared-58.0.0",
      "packageUri": "lib/",
      "languageVersion": "2.17"
    },
    {
      "name": "analyzer",
      "rootUri": "file:///Users/mihail/.pub-cache/hosted/pub.dev/analyzer-5.10.0",
      "packageUri": "lib/",
      "languageVersion": "2.19"
    },
    {
      "name": "args",
      "rootUri": "file:///Users/mihail/.pub-cache/hosted/pub.dev/args-2.4.0",
      "packageUri": "lib/",
      "languageVersion": "2.18"
    },
    {
      "name": "async",
      "rootUri": "file:///Users/mihail/.pub-cache/hosted/pub.dev/async-2.10.0",
      "packageUri": "lib/",
      "languageVersion": "2.18"
    },
    {
      "name": "bloc",
      "rootUri": "file:///Users/mihail/.pub-cache/hosted/pub.dev/bloc-8.1.1",
      "packageUri": "lib/",
      "languageVersion": "2.12"
    },
    {
      "name": "boolean_selector",
      "rootUri": "file:///Users/mihail/.pub-cache/hosted/pub.dev/boolean_selector-2.1.1",
      "packageUri": "lib/",
      "languageVersion": "2.17"
    },
    {
      "name": "build",
      "rootUri": "file:///Users/mihail/.pub-cache/hosted/pub.dev/build-2.3.1",
      "packageUri": "lib/",
      "languageVersion": "2.17"
    },
    {
      "name": "build_config",
      "rootUri": "file:///Users/mihail/.pub-cache/hosted/pub.dev/build_config-1.1.1",
      "packageUri": "lib/",
      "languageVersion": "2.14"
    },
    {
      "name": "build_daemon",
      "rootUri": "file:///Users/mihail/.pub-cache/hosted/pub.dev/build_daemon-3.1.1",
      "packageUri": "lib/",
      "languageVersion": "2.14"
    },
    {
      "name": "build_resolvers",
      "rootUri": "file:///Users/mihail/.pub-cache/hosted/pub.dev/build_resolvers-2.2.0",
      "packageUri": "lib/",
      "languageVersion": "2.18"
    },
    {
      "name": "build_runner",
      "rootUri": "file:///Users/mihail/.pub-cache/hosted/pub.dev/build_runner-2.3.3",
      "packageUri": "lib/",
      "languageVersion": "2.14"
    },
    {
      "name": "build_runner_core",
      "rootUri": "file:///Users/mihail/.pub-cache/hosted/pub.dev/build_runner_core-7.2.7",
      "packageUri": "lib/",
      "languageVersion": "2.17"
    },
    {
      "name": "built_collection",
      "rootUri": "file:///Users/mihail/.pub-cache/hosted/pub.dev/built_collection-5.1.1",
      "packageUri": "lib/",
      "languageVersion": "2.12"
    },
    {
      "name": "built_value",
      "rootUri": "file:///Users/mihail/.pub-cache/hosted/pub.dev/built_value-8.4.4",
      "packageUri": "lib/",
      "languageVersion": "2.12"
    },
    {
      "name": "characters",
      "rootUri": "file:///Users/mihail/.pub-cache/hosted/pub.dev/characters-1.2.1",
      "packageUri": "lib/",
      "languageVersion": "2.12"
    },
    {
      "name": "checked_yaml",
      "rootUri": "file:///Users/mihail/.pub-cache/hosted/pub.dev/checked_yaml-2.0.2",
      "packageUri": "lib/",
      "languageVersion": "2.18"
    },
    {
      "name": "clock",
      "rootUri": "file:///Users/mihail/.pub-cache/hosted/pub.dev/clock-1.1.1",
      "packageUri": "lib/",
      "languageVersion": "2.12"
    },
    {
      "name": "code_builder",
      "rootUri": "file:///Users/mihail/.pub-cache/hosted/pub.dev/code_builder-4.4.0",
      "packageUri": "lib/",
      "languageVersion": "2.17"
    },
    {
      "name": "collection",
      "rootUri": "file:///Users/mihail/.pub-cache/hosted/pub.dev/collection-1.17.0",
      "packageUri": "lib/",
      "languageVersion": "2.12"
    },
    {
      "name": "convert",
      "rootUri": "file:///Users/mihail/.pub-cache/hosted/pub.dev/convert-3.1.1",
      "packageUri": "lib/",
      "languageVersion": "2.18"
    },
    {
      "name": "crypto",
      "rootUri": "file:///Users/mihail/.pub-cache/hosted/pub.dev/crypto-3.0.2",
      "packageUri": "lib/",
      "languageVersion": "2.14"
    },
    {
      "name": "cupertino_icons",
      "rootUri": "file:///Users/mihail/.pub-cache/hosted/pub.dev/cupertino_icons-1.0.5",
      "packageUri": "lib/",
      "languageVersion": "2.12"
    },
    {
      "name": "dart_style",
      "rootUri": "file:///Users/mihail/.pub-cache/hosted/pub.dev/dart_style-2.3.0",
      "packageUri": "lib/",
      "languageVersion": "2.19"
    },
    {
      "name": "dio",
      "rootUri": "file:///Users/mihail/.pub-cache/hosted/pub.dev/dio-5.1.1",
      "packageUri": "lib/",
      "languageVersion": "2.15"
    },
    {
      "name": "fake_async",
      "rootUri": "file:///Users/mihail/.pub-cache/hosted/pub.dev/fake_async-1.3.1",
      "packageUri": "lib/",
      "languageVersion": "2.12"
    },
    {
      "name": "ffi",
      "rootUri": "file:///Users/mihail/.pub-cache/hosted/pub.dev/ffi-2.0.1",
      "packageUri": "lib/",
      "languageVersion": "2.17"
    },
    {
      "name": "file",
      "rootUri": "file:///Users/mihail/.pub-cache/hosted/pub.dev/file-6.1.4",
      "packageUri": "lib/",
      "languageVersion": "2.12"
    },
    {
      "name": "fixnum",
      "rootUri": "file:///Users/mihail/.pub-cache/hosted/pub.dev/fixnum-1.1.0",
      "packageUri": "lib/",
      "languageVersion": "2.19"
    },
    {
      "name": "flutter",
      "rootUri": "file:///Users/mihail/development/flutter/packages/flutter",
      "packageUri": "lib/",
      "languageVersion": "2.17"
    },
    {
      "name": "flutter_acrylic",
      "rootUri": "file:///Users/mihail/.pub-cache/hosted/pub.dev/flutter_acrylic-1.1.2",
      "packageUri": "lib/",
      "languageVersion": "2.12"
    },
    {
      "name": "flutter_bloc",
      "rootUri": "file:///Users/mihail/.pub-cache/hosted/pub.dev/flutter_bloc-8.1.2",
      "packageUri": "lib/",
      "languageVersion": "2.12"
    },
    {
      "name": "flutter_lints",
      "rootUri": "file:///Users/mihail/.pub-cache/hosted/pub.dev/flutter_lints-2.0.1",
      "packageUri": "lib/",
      "languageVersion": "2.17"
    },
    {
      "name": "flutter_test",
      "rootUri": "file:///Users/mihail/development/flutter/packages/flutter_test",
      "packageUri": "lib/",
      "languageVersion": "2.17"
    },
    {
      "name": "flutter_web_plugins",
      "rootUri": "file:///Users/mihail/development/flutter/packages/flutter_web_plugins",
      "packageUri": "lib/",
      "languageVersion": "2.17"
    },
    {
      "name": "freezed",
      "rootUri": "file:///Users/mihail/.pub-cache/hosted/pub.dev/freezed-2.3.2",
      "packageUri": "lib/",
      "languageVersion": "2.17"
    },
    {
      "name": "freezed_annotation",
      "rootUri": "file:///Users/mihail/.pub-cache/hosted/pub.dev/freezed_annotation-2.2.0",
      "packageUri": "lib/",
      "languageVersion": "2.17"
    },
    {
      "name": "frontend_server_client",
      "rootUri": "file:///Users/mihail/.pub-cache/hosted/pub.dev/frontend_server_client-3.2.0",
      "packageUri": "lib/",
      "languageVersion": "2.12"
    },
    {
      "name": "glob",
      "rootUri": "file:///Users/mihail/.pub-cache/hosted/pub.dev/glob-2.1.1",
      "packageUri": "lib/",
      "languageVersion": "2.15"
    },
    {
      "name": "global_shortcuts",
      "rootUri": "file:///Users/mihail/.pub-cache/hosted/pub.dev/global_shortcuts-0.0.1+1",
      "packageUri": "lib/",
      "languageVersion": "2.12"
    },
    {
      "name": "graphs",
      "rootUri": "file:///Users/mihail/.pub-cache/hosted/pub.dev/graphs-2.2.0",
      "packageUri": "lib/",
      "languageVersion": "2.12"
    },
    {
      "name": "http_multi_server",
      "rootUri": "file:///Users/mihail/.pub-cache/hosted/pub.dev/http_multi_server-3.2.1",
      "packageUri": "lib/",
      "languageVersion": "2.12"
    },
    {
      "name": "http_parser",
      "rootUri": "file:///Users/mihail/.pub-cache/hosted/pub.dev/http_parser-4.0.2",
      "packageUri": "lib/",
      "languageVersion": "2.12"
    },
    {
      "name": "io",
      "rootUri": "file:///Users/mihail/.pub-cache/hosted/pub.dev/io-1.0.4",
      "packageUri": "lib/",
      "languageVersion": "2.12"
    },
    {
      "name": "js",
      "rootUri": "file:///Users/mihail/.pub-cache/hosted/pub.dev/js-0.6.5",
      "packageUri": "lib/",
      "languageVersion": "2.16"
    },
    {
      "name": "json_annotation",
      "rootUri": "file:///Users/mihail/.pub-cache/hosted/pub.dev/json_annotation-4.8.0",
      "packageUri": "lib/",
      "languageVersion": "2.18"
    },
    {
      "name": "json_serializable",
      "rootUri": "file:///Users/mihail/.pub-cache/hosted/pub.dev/json_serializable-6.6.1",
      "packageUri": "lib/",
      "languageVersion": "2.18"
    },
    {
      "name": "keyboard_event",
      "rootUri": "file:///Users/mihail/.pub-cache/hosted/pub.dev/keyboard_event-0.3.4",
      "packageUri": "lib/",
      "languageVersion": "2.12"
    },
    {
      "name": "lints",
      "rootUri": "file:///Users/mihail/.pub-cache/hosted/pub.dev/lints-2.0.1",
      "packageUri": "lib/",
      "languageVersion": "2.17"
    },
    {
      "name": "logger",
      "rootUri": "file:///Users/mihail/.pub-cache/hosted/pub.dev/logger-1.3.0",
      "packageUri": "lib/",
      "languageVersion": "2.12"
    },
    {
      "name": "logging",
      "rootUri": "file:///Users/mihail/.pub-cache/hosted/pub.dev/logging-1.1.1",
      "packageUri": "lib/",
      "languageVersion": "2.18"
    },
    {
      "name": "macos_window_utils",
      "rootUri": "file:///Users/mihail/.pub-cache/hosted/pub.dev/macos_window_utils-1.1.2",
      "packageUri": "lib/",
      "languageVersion": "2.18"
    },
    {
      "name": "matcher",
      "rootUri": "file:///Users/mihail/.pub-cache/hosted/pub.dev/matcher-0.12.13",
      "packageUri": "lib/",
      "languageVersion": "2.18"
    },
    {
      "name": "material_color_utilities",
      "rootUri": "file:///Users/mihail/.pub-cache/hosted/pub.dev/material_color_utilities-0.2.0",
      "packageUri": "lib/",
      "languageVersion": "2.13"
    },
    {
      "name": "meta",
      "rootUri": "file:///Users/mihail/.pub-cache/hosted/pub.dev/meta-1.8.0",
      "packageUri": "lib/",
      "languageVersion": "2.12"
    },
    {
      "name": "mime",
      "rootUri": "file:///Users/mihail/.pub-cache/hosted/pub.dev/mime-1.0.4",
      "packageUri": "lib/",
      "languageVersion": "2.18"
    },
    {
      "name": "nested",
      "rootUri": "file:///Users/mihail/.pub-cache/hosted/pub.dev/nested-1.0.0",
      "packageUri": "lib/",
      "languageVersion": "2.12"
    },
    {
      "name": "package_config",
      "rootUri": "file:///Users/mihail/.pub-cache/hosted/pub.dev/package_config-2.1.0",
      "packageUri": "lib/",
      "languageVersion": "2.12"
    },
    {
      "name": "path",
      "rootUri": "file:///Users/mihail/.pub-cache/hosted/pub.dev/path-1.8.2",
      "packageUri": "lib/",
      "languageVersion": "2.12"
    },
    {
      "name": "path_provider_linux",
      "rootUri": "file:///Users/mihail/.pub-cache/hosted/pub.dev/path_provider_linux-2.1.10",
      "packageUri": "lib/",
      "languageVersion": "2.17"
    },
    {
      "name": "path_provider_platform_interface",
      "rootUri": "file:///Users/mihail/.pub-cache/hosted/pub.dev/path_provider_platform_interface-2.0.6",
      "packageUri": "lib/",
      "languageVersion": "2.12"
    },
    {
      "name": "path_provider_windows",
      "rootUri": "file:///Users/mihail/.pub-cache/hosted/pub.dev/path_provider_windows-2.1.5",
      "packageUri": "lib/",
      "languageVersion": "2.17"
    },
    {
      "name": "platform",
      "rootUri": "file:///Users/mihail/.pub-cache/hosted/pub.dev/platform-3.1.0",
      "packageUri": "lib/",
      "languageVersion": "2.12"
    },
    {
      "name": "plugin_platform_interface",
      "rootUri": "file:///Users/mihail/.pub-cache/hosted/pub.dev/plugin_platform_interface-2.1.4",
      "packageUri": "lib/",
      "languageVersion": "2.17"
    },
    {
      "name": "pool",
      "rootUri": "file:///Users/mihail/.pub-cache/hosted/pub.dev/pool-1.5.1",
      "packageUri": "lib/",
      "languageVersion": "2.12"
    },
    {
      "name": "process",
      "rootUri": "file:///Users/mihail/.pub-cache/hosted/pub.dev/process-4.2.4",
      "packageUri": "lib/",
      "languageVersion": "2.14"
    },
    {
      "name": "provider",
      "rootUri": "file:///Users/mihail/.pub-cache/hosted/pub.dev/provider-6.0.5",
      "packageUri": "lib/",
      "languageVersion": "2.12"
    },
    {
      "name": "pub_semver",
      "rootUri": "file:///Users/mihail/.pub-cache/hosted/pub.dev/pub_semver-2.1.3",
      "packageUri": "lib/",
      "languageVersion": "2.17"
    },
    {
      "name": "pubspec_parse",
      "rootUri": "file:///Users/mihail/.pub-cache/hosted/pub.dev/pubspec_parse-1.2.2",
      "packageUri": "lib/",
      "languageVersion": "2.18"
    },
    {
      "name": "retrofit",
      "rootUri": "file:///Users/mihail/.pub-cache/hosted/pub.dev/retrofit-4.0.1",
      "packageUri": "lib/",
      "languageVersion": "2.17"
    },
    {
      "name": "retrofit_generator",
      "rootUri": "file:///Users/mihail/.pub-cache/hosted/pub.dev/retrofit_generator-5.0.0+1",
      "packageUri": "lib/",
      "languageVersion": "2.17"
    },
    {
      "name": "screen_retriever",
      "rootUri": "file:///Users/mihail/.pub-cache/hosted/pub.dev/screen_retriever-0.1.6",
      "packageUri": "lib/",
      "languageVersion": "2.12"
    },
    {
      "name": "shared_preferences",
      "rootUri": "file:///Users/mihail/.pub-cache/hosted/pub.dev/shared_preferences-2.1.0",
      "packageUri": "lib/",
      "languageVersion": "2.17"
    },
    {
      "name": "shared_preferences_android",
      "rootUri": "file:///Users/mihail/.pub-cache/hosted/pub.dev/shared_preferences_android-2.1.2",
      "packageUri": "lib/",
      "languageVersion": "2.17"
    },
    {
      "name": "shared_preferences_foundation",
      "rootUri": "file:///Users/mihail/.pub-cache/hosted/pub.dev/shared_preferences_foundation-2.2.1",
      "packageUri": "lib/",
      "languageVersion": "2.17"
    },
    {
      "name": "shared_preferences_linux",
      "rootUri": "file:///Users/mihail/.pub-cache/hosted/pub.dev/shared_preferences_linux-2.2.0",
      "packageUri": "lib/",
      "languageVersion": "2.17"
    },
    {
      "name": "shared_preferences_platform_interface",
      "rootUri": "file:///Users/mihail/.pub-cache/hosted/pub.dev/shared_preferences_platform_interface-2.2.0",
      "packageUri": "lib/",
      "languageVersion": "2.17"
    },
    {
      "name": "shared_preferences_web",
      "rootUri": "file:///Users/mihail/.pub-cache/hosted/pub.dev/shared_preferences_web-2.1.0",
      "packageUri": "lib/",
      "languageVersion": "2.17"
    },
    {
      "name": "shared_preferences_windows",
      "rootUri": "file:///Users/mihail/.pub-cache/hosted/pub.dev/shared_preferences_windows-2.2.0",
      "packageUri": "lib/",
      "languageVersion": "2.17"
    },
    {
      "name": "shelf",
      "rootUri": "file:///Users/mihail/.pub-cache/hosted/pub.dev/shelf-1.4.0",
      "packageUri": "lib/",
      "languageVersion": "2.17"
    },
    {
      "name": "shelf_web_socket",
      "rootUri": "file:///Users/mihail/.pub-cache/hosted/pub.dev/shelf_web_socket-1.0.3",
      "packageUri": "lib/",
      "languageVersion": "2.17"
    },
    {
      "name": "sky_engine",
      "rootUri": "file:///Users/mihail/development/flutter/bin/cache/pkg/sky_engine",
      "packageUri": "lib/",
      "languageVersion": "2.12"
    },
    {
      "name": "source_gen",
      "rootUri": "file:///Users/mihail/.pub-cache/hosted/pub.dev/source_gen-1.2.7",
      "packageUri": "lib/",
      "languageVersion": "2.18"
    },
    {
      "name": "source_helper",
      "rootUri": "file:///Users/mihail/.pub-cache/hosted/pub.dev/source_helper-1.3.3",
      "packageUri": "lib/",
      "languageVersion": "2.17"
    },
    {
      "name": "source_span",
      "rootUri": "file:///Users/mihail/.pub-cache/hosted/pub.dev/source_span-1.9.1",
      "packageUri": "lib/",
      "languageVersion": "2.14"
    },
    {
      "name": "stack_trace",
      "rootUri": "file:///Users/mihail/.pub-cache/hosted/pub.dev/stack_trace-1.11.0",
      "packageUri": "lib/",
      "languageVersion": "2.18"
    },
    {
      "name": "stream_channel",
      "rootUri": "file:///Users/mihail/.pub-cache/hosted/pub.dev/stream_channel-2.1.1",
      "packageUri": "lib/",
      "languageVersion": "2.14"
    },
    {
      "name": "stream_transform",
      "rootUri": "file:///Users/mihail/.pub-cache/hosted/pub.dev/stream_transform-2.1.0",
      "packageUri": "lib/",
      "languageVersion": "2.14"
    },
    {
      "name": "string_scanner",
      "rootUri": "file:///Users/mihail/.pub-cache/hosted/pub.dev/string_scanner-1.2.0",
      "packageUri": "lib/",
      "languageVersion": "2.18"
    },
    {
      "name": "term_glyph",
      "rootUri": "file:///Users/mihail/.pub-cache/hosted/pub.dev/term_glyph-1.2.1",
      "packageUri": "lib/",
      "languageVersion": "2.12"
    },
    {
      "name": "test_api",
      "rootUri": "file:///Users/mihail/.pub-cache/hosted/pub.dev/test_api-0.4.16",
      "packageUri": "lib/",
      "languageVersion": "2.18"
    },
    {
      "name": "timing",
      "rootUri": "file:///Users/mihail/.pub-cache/hosted/pub.dev/timing-1.0.1",
      "packageUri": "lib/",
      "languageVersion": "2.14"
    },
    {
      "name": "tuple",
      "rootUri": "file:///Users/mihail/.pub-cache/hosted/pub.dev/tuple-2.0.1",
      "packageUri": "lib/",
      "languageVersion": "2.14"
    },
    {
      "name": "typed_data",
      "rootUri": "file:///Users/mihail/.pub-cache/hosted/pub.dev/typed_data-1.3.1",
      "packageUri": "lib/",
      "languageVersion": "2.12"
    },
    {
      "name": "vector_math",
      "rootUri": "file:///Users/mihail/.pub-cache/hosted/pub.dev/vector_math-2.1.4",
      "packageUri": "lib/",
      "languageVersion": "2.14"
    },
    {
      "name": "watcher",
      "rootUri": "file:///Users/mihail/.pub-cache/hosted/pub.dev/watcher-1.0.2",
      "packageUri": "lib/",
      "languageVersion": "2.14"
    },
    {
      "name": "web_socket_channel",
      "rootUri": "file:///Users/mihail/.pub-cache/hosted/pub.dev/web_socket_channel-2.4.0",
      "packageUri": "lib/",
      "languageVersion": "2.15"
    },
    {
      "name": "win32",
      "rootUri": "file:///Users/mihail/.pub-cache/hosted/pub.dev/win32-3.1.4",
      "packageUri": "lib/",
      "languageVersion": "2.17"
    },
    {
      "name": "window_manager",
      "rootUri": "file:///Users/mihail/.pub-cache/hosted/pub.dev/window_manager-0.3.2",
      "packageUri": "lib/",
      "languageVersion": "2.12"
    },
    {
      "name": "xdg_directories",
      "rootUri": "file:///Users/mihail/.pub-cache/hosted/pub.dev/xdg_directories-1.0.0",
      "packageUri": "lib/",
      "languageVersion": "2.17"
    },
    {
      "name": "yaml",
      "rootUri": "file:///Users/mihail/.pub-cache/hosted/pub.dev/yaml-3.1.1",
      "packageUri": "lib/",
      "languageVersion": "2.12"
    },
    {
      "name": "quick_message_dialog",
      "rootUri": "../",
      "packageUri": "lib/",
      "languageVersion": "2.19"
    }
  ],
  "generated": "2023-04-21T06:39:48.760566Z",
  "generator": "pub",
  "generatorVersion": "2.19.6"
}
